{
  "data": [
    {
      "id": 1,
      "name": "Will",
      "description": "Ranger of the Night’s Watch",
      "death": {
        "season": 1,
        "episode": 1
      },
      "execution": "Beheaded for desertion by Ned Stark"
    },
    {
      "id": 2,
      "name": "Jon Arryn",
      "description": "Hand to the King before Ned Stark",
      "death": {
        "season": 1,
        "episode": 1
      },
      "execution": "Poisoned by Lysa Arryn and Littlefinger"
    },
    {
      "id": 3,
      "name": "Jory Cassel",
      "description": "Captain of the guards to House Stark",
      "death": {
        "season": 1,
        "episode": 5
      },
      "execution": "Stabbed by Jaime Lannister through the eye"
    },
    {
      "name": "Test",
      "description": "Heya",
      "execution": "Mode",
      "id": 4
    }
  ]
}